<?xml version="1.0" encoding="UTF-8"?>
<session version="1.0">
<refactoring accessors="true" comment="Delete element from project &apos;Prueba1.java&apos;&#x0A;- Original project: &apos;Prueba1.java&apos;&#x0A;- Original element: &apos;Prueba1.java/src/examen_UML&apos;" description="Delete element" element1="/src&lt;examen_UML" elements="1" flags="589830" id="org.eclipse.jdt.ui.delete" resources="0" stamp="1591101302370" subPackages="false" version="1.0"/>
</session>